Index
…
gapminder <- readr::read_csv("https://raw.githubusercontent.com/OHI-Science/data-science-training/master/data/gapminder.csv")

## Parsed with column specification:
## cols(
##   country = col_character(),
##   year = col_integer(),
##   pop = col_double(),
##   continent = col_character(),
##   lifeExp = col_double(),
##   gdpPercap = col_double()
## )

gapminder

## # A tibble: 1,704 x 6
##        country  year      pop continent lifeExp gdpPercap
##          <chr> <int>    <dbl>     <chr>   <dbl>     <dbl>
##  1 Afghanistan  1952  8425333      Asia  28.801  779.4453
##  2 Afghanistan  1957  9240934      Asia  30.332  820.8530
##  3 Afghanistan  1962 10267083      Asia  31.997  853.1007
##  4 Afghanistan  1967 11537966      Asia  34.020  836.1971
##  5 Afghanistan  1972 13079460      Asia  36.088  739.9811
##  6 Afghanistan  1977 14880372      Asia  38.438  786.1134
##  7 Afghanistan  1982 12881816      Asia  39.854  978.0114
##  8 Afghanistan  1987 13867957      Asia  40.822  852.3959
##  9 Afghanistan  1992 16317921      Asia  41.674  649.3414
## 10 Afghanistan  1997 22227415      Asia  41.763  635.3414
## # ... with 1,694 more rows
…
tail(gapminder)

## # A tibble: 6 x 6
##    country  year      pop continent lifeExp gdpPercap
##      <chr> <int>    <dbl>     <chr>   <dbl>     <dbl>
## 1 Zimbabwe  1982  7636524    Africa  60.363  788.8550
## 2 Zimbabwe  1987  9216418    Africa  62.351  706.1573
## 3 Zimbabwe  1992 10704340    Africa  60.377  693.4208
## 4 Zimbabwe  1997 11404948    Africa  46.809  792.4500
## 5 Zimbabwe  2002 11926563    Africa  39.989  672.0386
## 6 Zimbabwe  2007 12311143    Africa  43.487  469.7093

head(gapminder, 30)

## # A tibble: 30 x 6
##        country  year      pop continent lifeExp gdpPercap
##          <chr> <int>    <dbl>     <chr>   <dbl>     <dbl>
##  1 Afghanistan  1952  8425333      Asia  28.801  779.4453
##  2 Afghanistan  1957  9240934      Asia  30.332  820.8530
##  3 Afghanistan  1962 10267083      Asia  31.997  853.1007
##  4 Afghanistan  1967 11537966      Asia  34.020  836.1971
##  5 Afghanistan  1972 13079460      Asia  36.088  739.9811
##  6 Afghanistan  1977 14880372      Asia  38.438  786.1134
##  7 Afghanistan  1982 12881816      Asia  39.854  978.0114
##  8 Afghanistan  1987 13867957      Asia  40.822  852.3959
##  9 Afghanistan  1992 16317921      Asia  41.674  649.3414
## 10 Afghanistan  1997 22227415      Asia  41.763  635.3414
## # ... with 20 more rows
…
sweden <- filter(gapminder, country == "Sweden")
x <- mean(sweden$lifeExp)

y <- gapminder %>% 
  filter(country == "Sweden") %>% 
  summarize(mean_lifeExp = mean(lifeExp))

select by columns

select(gapminder, year, lifeExp)

## # A tibble: 1,704 x 2
##     year lifeExp
##    <int>   <dbl>
##  1  1952  28.801
##  2  1957  30.332
##  3  1962  31.997
##  4  1967  34.020
##  5  1972  36.088
##  6  1977  38.438
##  7  1982  39.854
##  8  1987  40.822
##  9  1992  41.674
## 10  1997  41.763
## # ... with 1,694 more rows
…
gapminder %>% 
  filter(country == "Mexico", year == 2002)

## # A tibble: 1 x 6
##   country  year       pop continent lifeExp gdpPercap
##     <chr> <int>     <dbl>     <chr>   <dbl>     <dbl>
## 1  Mexico  2002 102479927  Americas  74.902  10742.44

gapminder %>% 
  mutate(gdp = pop * gdpPercap)

## # A tibble: 1,704 x 7
##        country  year      pop continent lifeExp gdpPercap         gdp
##          <chr> <int>    <dbl>     <chr>   <dbl>     <dbl>       <dbl>
##  1 Afghanistan  1952  8425333      Asia  28.801  779.4453  6567086330
##  2 Afghanistan  1957  9240934      Asia  30.332  820.8530  7585448670
##  3 Afghanistan  1962 10267083      Asia  31.997  853.1007  8758855797
##  4 Afghanistan  1967 11537966      Asia  34.020  836.1971  9648014150
##  5 Afghanistan  1972 13079460      Asia  36.088  739.9811  9678553274
##  6 Afghanistan  1977 14880372      Asia  38.438  786.1134 11697659231
##  7 Afghanistan  1982 12881816      Asia  39.854  978.0114 12598563401
##  8 Afghanistan  1987 13867957      Asia  40.822  852.3959 11820990309
##  9 Afghanistan  1992 16317921      Asia  41.674  649.3414 10595901589
## 10 Afghanistan  1997 22227415      Asia  41.763  635.3414 14121995875
## # ... with 1,694 more rows

gapminder %>% 
  mutate(index = 1:nrow(gapminder))

## # A tibble: 1,704 x 7
##        country  year      pop continent lifeExp gdpPercap index
##          <chr> <int>    <dbl>     <chr>   <dbl>     <dbl> <int>
##  1 Afghanistan  1952  8425333      Asia  28.801  779.4453     1
##  2 Afghanistan  1957  9240934      Asia  30.332  820.8530     2
##  3 Afghanistan  1962 10267083      Asia  31.997  853.1007     3
##  4 Afghanistan  1967 11537966      Asia  34.020  836.1971     4
##  5 Afghanistan  1972 13079460      Asia  36.088  739.9811     5
##  6 Afghanistan  1977 14880372      Asia  38.438  786.1134     6
##  7 Afghanistan  1982 12881816      Asia  39.854  978.0114     7
##  8 Afghanistan  1987 13867957      Asia  40.822  852.3959     8
##  9 Afghanistan  1992 16317921      Asia  41.674  649.3414     9
## 10 Afghanistan  1997 22227415      Asia  41.763  635.3414    10
## # ... with 1,694 more rows

gapminder %>% 
  filter(country %in% c("Egypt", "Vietnam")) %>% 
  mutate(max_gdpPercap = max(gdpPercap))

## # A tibble: 24 x 7
##    country  year      pop continent lifeExp gdpPercap max_gdpPercap
##      <chr> <int>    <dbl>     <chr>   <dbl>     <dbl>         <dbl>
##  1   Egypt  1952 22223309    Africa  41.893  1418.822      5581.181
##  2   Egypt  1957 25009741    Africa  44.444  1458.915      5581.181
##  3   Egypt  1962 28173309    Africa  46.992  1693.336      5581.181
##  4   Egypt  1967 31681188    Africa  49.293  1814.881      5581.181
##  5   Egypt  1972 34807417    Africa  51.137  2024.008      5581.181
##  6   Egypt  1977 38783863    Africa  53.319  2785.494      5581.181
##  7   Egypt  1982 45681811    Africa  56.006  3503.730      5581.181
##  8   Egypt  1987 52799062    Africa  59.797  3885.461      5581.181
##  9   Egypt  1992 59402198    Africa  63.674  3794.755      5581.181
## 10   Egypt  1997 66134291    Africa  67.217  4173.182      5581.181
## # ... with 14 more rows
…
## # A tibble: 2 x 2
##   country max_gdpPercap
##     <chr>         <dbl>
## 1   Egypt      5581.181
## 2 Vietnam      2441.576

gapminder %>% 
  group_by(country) %>% 
  summarise(max_gdpPercap = max(gdpPercap))

## # A tibble: 142 x 2
##        country max_gdpPercap
##          <chr>         <dbl>
##  1 Afghanistan      978.0114
##  2     Albania     5937.0295
##  3     Algeria     6223.3675
##  4      Angola     5522.7764
##  5   Argentina    12779.3796
##  6   Australia    34435.3674
##  7     Austria    36126.4927
##  8     Bahrain    29796.0483
##  9  Bangladesh     1391.2538
## 10     Belgium    33692.6051
## # ... with 132 more rows

gapminder %>% 
  group_by(country) %>% 
  mutate(max_gdpPercap = max(gdpPercap)) %>% 
  filter(max_gdpPercap == gdpPercap) %>% 
  arrange(desc(year))

## # A tibble: 142 x 7
## # Groups:   country [142]
##       country  year       pop continent lifeExp gdpPercap max_gdpPercap
##         <chr> <int>     <dbl>     <chr>   <dbl>     <dbl>         <dbl>
##  1    Albania  2007   3600523    Europe  76.423  5937.030      5937.030
##  2    Algeria  2007  33333216    Africa  72.301  6223.367      6223.367
##  3  Argentina  2007  40301927  Americas  75.320 12779.380     12779.380
##  4  Australia  2007  20434176   Oceania  81.235 34435.367     34435.367
##  5    Austria  2007   8199783    Europe  79.829 36126.493     36126.493
##  6    Bahrain  2007    708573      Asia  75.635 29796.048     29796.048
##  7 Bangladesh  2007 150448339      Asia  64.062  1391.254      1391.254
##  8    Belgium  2007  10392226    Europe  79.441 33692.605     33692.605
##  9      Benin  2007   8078314    Africa  56.728  1441.285      1441.285
## 10    Bolivia  2007   9119152  Americas  65.554  3822.137      3822.137
## # ... with 132 more rows
